objid	container	server_template_crc	cell_index	px	py	pz	qw	qx	qy	qz	scripts	objvars
i	i	h	i	f	f	f	f	f	f	f	s	p
141364	0	object/static/structure/naboo/planter_naboo_theed_style_1.iff	0	856.21	360	582.45	0.896052	0	-0.443948	0		$|
141365	0	object/static/structure/naboo/planter_naboo_theed_style_2.iff	0	856.107	360	566.839	-0.480124	0	0.877201	0		$|
141388	0	object/static/structure/general/planter_generic_style_1.iff	0	846.063	360	639.49	0.999888	0	-0.0149995	0		$|
141393	0	object/static/structure/naboo/streetlamp_naboo_theed_style_1.iff	0	799.504	360	668.117	0.999987	0	0.00499996	0		$|
141394	0	object/static/structure/naboo/streetlamp_naboo_theed_style_1.iff	0	758.622	360	682.528	0.99995	0	0.00999985	0		$|
141397	0	object/static/structure/naboo/streetlamp_naboo_theed_style_1.iff	0	864.853	360	631.846	0.999888	0	0.0149994	0		$|
141400	0	object/static/structure/naboo/streetlamp_naboo_theed_style_1.iff	0	888.165	360	580.97	1	0	0	0		$|
141401	0	object/static/structure/naboo/streetlamp_naboo_theed_style_1.iff	0	858.32	360	501.063	1	0	0	0		$|
141402	0	object/static/structure/naboo/streetlamp_naboo_theed_style_1.iff	0	891.226	360	497.924	1	0	0	0		$|
141403	0	object/static/structure/naboo/streetlamp_naboo_theed_style_1.iff	0	888.03	360	537.427	1	0	0	0		$|
141404	0	object/static/structure/naboo/streetlamp_naboo_theed_style_1.iff	0	829.759	360	516.046	1	0	0	0		$|
141405	0	object/static/structure/naboo/streetlamp_naboo_theed_style_1.iff	0	767	360	541.341	1	0	0	0		$|
141406	0	object/static/structure/naboo/streetlamp_naboo_theed_style_1.iff	0	796.674	360	540.9	1	0	0	0		$|
141407	0	object/static/structure/naboo/streetlamp_naboo_theed_style_1.iff	0	982.329	350	513.728	0.999987	0	-0.00499994	0		$|
141408	0	object/static/structure/naboo/streetlamp_naboo_theed_style_1.iff	0	1003.71	350	539.772	0.9998	0	-0.0199987	0		$|
141409	0	object/static/structure/naboo/streetlamp_naboo_theed_style_1.iff	0	1050.64	350.221	581.946	0.988011	0	0.15438	0		$|
141410	0	object/static/structure/naboo/streetlamp_naboo_theed_style_1.iff	0	762.213	360	659.441	1	0	0	0		$|
141411	0	object/static/structure/naboo/streetlamp_naboo_theed_style_1.iff	0	671.912	330	775.571	0.99955	0	0.0299955	0		$|
141412	0	object/static/structure/naboo/streetlamp_naboo_theed_style_1.iff	0	665.55	329.948	706.72	1	0	0	0		$|
141413	0	object/static/structure/naboo/streetlamp_naboo_theed_style_1.iff	0	603.342	330	727.351	1	0	0	0		$|
141415	0	object/static/structure/naboo/streetlamp_naboo_theed_style_1.iff	0	635.642	330	637.544	0.99639	0	-0.0848976	0		$|
141416	0	object/static/structure/naboo/streetlamp_naboo_theed_style_1.iff	0	421.995	317.685	777.616	0.990216	0	0.139543	0		$|
141418	0	object/static/structure/naboo/streetlamp_naboo_theed_style_1.iff	0	523.723	328.974	716.17	0.870293	0	-0.492535	0		$|
141419	0	object/static/structure/naboo/streetlamp_naboo_theed_style_1.iff	0	565.271	330	703.429	0.9998	0	-0.0199987	0		$|
141420	0	object/static/structure/naboo/streetlamp_naboo_theed_style_1.iff	0	646.542	328.002	603.39	0.999388	0	0.0349929	0		$|
141421	0	object/static/structure/naboo/streetlamp_naboo_theed_style_1.iff	0	617.83	330.103	621.301	0.99955	0	-0.0299955	0		$|
141449	0	object/static/structure/naboo/obelisk_naboo_theed_style_3.iff	0	755.574	360	542.026	1	0	0	0		$|
141483	0	object/static/structure/naboo/planter_naboo_theed_style_2.iff	0	647.031	329.993	722.771	1	0	0	0		$|
141484	0	object/static/structure/naboo/planter_naboo_theed_style_1.iff	0	621.849	330	597.94	1	0	0	0		$|
141486	0	object/static/structure/naboo/planter_naboo_theed_style_1.iff	0	623.696	330.001	722.672	0.980347	0	0.19728	0		$|
142320	0	object/static/structure/general/planter_generic_style_1.iff	0	827.13	360	640.722	0.999987	0	0.00515056	0		$|
142321	0	object/static/structure/general/planter_generic_style_1.iff	0	802.888	360	641.597	0.362135	0	0.932126	0		$|
142323	0	object/static/structure/naboo/streetlamp_naboo_theed_style_1.iff	0	826.847	360	655.076	0.999942	0	0.0107968	0		$|
142324	0	object/static/structure/naboo/streetlamp_naboo_theed_style_1.iff	0	804.174	360	655.311	0.999942	0	0.0107968	0		$|
151340	0	object/static/structure/naboo/streetlamp_naboo_theed_style_1.iff	0	719.788	336.5	565.554	1	0	0	0		$|
164330	0	object/static/structure/naboo/fountain_naboo_style_1.iff	0	860.802	359.989	574.586	0.988771	0	-0.149438	0		$|
164332	0	object/static/structure/general/planter_generic_style_4.iff	0	864.203	360	551.253	-0.310573	0	0.950549	0		$|
164333	0	object/static/structure/naboo/streetlamp_naboo_theed_style_1.iff	0	872.244	360.158	541.761	1	0	0	0		$|
1419009	0	object/building/naboo/hotel_naboo_theed.iff	0	1049.21	350	616.643	-0.15438	0	0.988011	0		$|
1419010	1419009	object/cell/cell.iff	1	0	0	0	1	0	0	0		$|
1419011	1419009	object/cell/cell.iff	2	0	0	0	1	0	0	0		$|
1419012	1419009	object/cell/cell.iff	3	0	0	0	1	0	0	0		$|
1419013	1419009	object/cell/cell.iff	4	0	0	0	1	0	0	0		$|
1143423	1419013	object/tangible/gambling/slot/standard.iff	4	4.39176	1.1907	-22.0438	0.99997	0	0.00769799	0		$|
1143424	1419013	object/tangible/gambling/slot/standard.iff	4	0.320197	1.18981	-21.9198	0.99997	0	0.00769799	0		$|
1143425	1419013	object/tangible/gambling/wheel/roulette.iff	4	-1.04228	1	-16.0307	0.99997	0	0.00769799	0		$|
1143426	1419013	object/tangible/gambling/wheel/roulette.iff	4	9.59993	1.00096	-16.254	0.99997	0	0.00769799	0		$|
1143427	1419013	object/tangible/gambling/slot/standard.iff	4	8.43074	1.1907	-22.2287	0.99997	0	0.00769799	0		$|
1419014	1419009	object/cell/cell.iff	5	0	0	0	1	0	0	0		$|
1419015	1419009	object/cell/cell.iff	6	0	0	0	1	0	0	0		$|
1143417	1419015	object/tangible/gambling/wheel/roulette.iff	6	-15.9347	1.00088	-0.119644	0.999997	0	-0.00230194	0		$|
1143418	1419015	object/tangible/gambling/wheel/roulette.iff	6	-15.9409	1.00089	4.25004	0.999997	0	-0.00230194	0		$|
1143419	1419015	object/tangible/gambling/slot/standard.iff	6	-12.348	1.00071	-0.126839	-0.705479	0	0.708732	0		$|
1143420	1419015	object/tangible/gambling/slot/standard.iff	6	-12.1454	1.00056	-0.14681	0.708733	0	0.705476	0		$|
1143421	1419015	object/tangible/gambling/slot/standard.iff	6	-12.028	1.00082	4.1598	0.699717	0	0.71442	0		$|
1143422	1419015	object/tangible/gambling/slot/standard.iff	6	-12.23	1.00067	4.1847	0.714416	0	-0.699721	0		$|
1419016	1419009	object/cell/cell.iff	7	0	0	0	1	0	0	0		$|
1419017	1419009	object/cell/cell.iff	8	0	0	0	1	0	0	0		$|
1419018	1419009	object/cell/cell.iff	9	0	0	0	1	0	0	0		$|
1419019	1419009	object/cell/cell.iff	10	0	0	0	1	0	0	0		$|
1419039	0	object/static/structure/naboo/seawall_stair_naboo_theed_style_1.iff	0	1043.48	344.154	548.528	0.320063	0	0.947396	0		$|
1419043	0	object/static/structure/naboo/wall_a1_naboo_theed_style_1.iff	0	1042.8	344.07	503.044	0.870293	0	0.492535	0		$|
1419044	0	object/static/structure/naboo/wall_a1_naboo_theed_style_1.iff	0	1032.17	344.096	520.841	0.64864	0	0.761096	0		$|
1419047	0	object/static/structure/naboo/wallend_a1_naboo_theed_style_1.iff	0	1035.57	344.11	541.016	0.362358	0	0.932039	0		$|
1419088	0	object/static/structure/naboo/nboo_imprv_pillar_pillar_s01.iff	0	1060.66	345.507	504.497	0.999526	0	0.0307917	0		$|
1419150	0	object/static/structure/naboo/nboo_imprv_pillar_pillar_s01.iff	0	1043.23	348.001	502.624	0.256311	0	0.966595	0		$|
1419151	0	object/static/structure/naboo/wallend_a1_naboo_theed_style_1.iff	0	1059.89	344.127	559.276	0.950796	0	-0.309817	0		$|
1419152	0	object/static/structure/naboo/wall_a1_naboo_theed_style_1.iff	0	1076.78	344.155	570.816	0.955337	0	-0.29552	0	theme_park.script_spawner.spawner_methods.gcw_spawner	$|
1419153	0	object/static/structure/naboo/nboo_imprv_pillar_pillar_s01.iff	0	1076.94	347.036	570.768	0.29476	0	0.955572	0		$|
1419154	0	object/building/naboo/shuttleport_naboo.iff	0	1255.94	327.028	471.219	0.999996	0	0.00269702	0	structure.municipal.starport:planet_map.map_loc	travel.cost|0|200|travel.ground_time|0|300|travel.is_shuttleport|0|1|travel.point_name|4|Dee' Ja Peak Shuttleport|travel.shuttle_available|0|1|travel.version|0|3|$|
1422846	0	object/static/structure/naboo/seawall_stair_naboo_theed_style_1.iff	0	956.358	346.76	511.013	0.865326	0	0.501209	0		$|
1422847	0	object/static/structure/naboo/seawall_stair_naboo_theed_style_1.iff	0	947.96	350.489	506.228	0.867822	0	0.496875	0		$|
1422848	0	object/static/structure/naboo/seawall_stair_naboo_theed_style_1.iff	0	940.099	354.19	501.594	0.867821	0	0.496877	0		$|
1426852	0	object/static/structure/naboo/nboo_imprv_pillar_wall_ornate_large_s01.iff	0	1074.19	346.5	543.032	0.577284	0	0.816544	0		$|
1426853	0	object/static/structure/naboo/nboo_imprv_pillar_wall_ornate_large_s01.iff	0	1071.52	346.5	535.491	0.577284	0	0.816544	0		$|
1426854	0	object/static/structure/naboo/nboo_imprv_pillar_wall_ornate_large_s01.iff	0	1066.18	346.5	520.4	0.577284	0	0.816544	0		$|
1426855	0	object/static/structure/naboo/nboo_imprv_pillar_wall_ornate_large_s01.iff	0	1068.85	346.5	527.941	0.577284	0	0.816544	0		$|
1426856	0	object/static/structure/naboo/nboo_imprv_pillar_wall_ornate_large_s01.iff	0	1060.85	346.5	505.314	0.577284	0	0.816544	0		$|
1426857	0	object/static/structure/naboo/nboo_imprv_pillar_wall_ornate_large_s01.iff	0	1063.51	346.5	512.856	0.577284	0	0.816544	0		$|
1426858	0	object/static/structure/naboo/nboo_imprv_pillar_wall_ornate_small_s01.iff	0	1076.84	346.5	550.583	0.585743	0	0.810497	0		$|
1426859	0	object/static/structure/naboo/nboo_imprv_pillar_wall_ornate_large_s01.iff	0	1088.21	346.5	563.986	0.777072	0	-0.629412	0		$|
1426860	0	object/static/structure/naboo/nboo_imprv_pillar_wall_ornate_large_s01.iff	0	1080.62	346.5	566.536	-0.145281	0	0.989391	0		$|
1426862	0	object/static/structure/naboo/nboo_imprv_pillar_pillar_s07.iff	0	1086.56	346.626	555.932	0.995491	0	0.0948574	0		$|
1426863	0	object/static/structure/naboo/nboo_imprv_pillar_pillar_s07.iff	0	1088.28	346.721	564.215	0.995953	0	0.0898789	0		$|
1426865	0	object/static/structure/naboo/streetlamp_naboo_theed_style_1.iff	0	1027.78	350.221	589.268	0.988011	0	0.15438	0		$|
1426872	0	object/static/structure/naboo/nboo_imprv_short_curved_wall_large_s01.iff	0	710.474	336.5	572.887	1	0	0	0		$|
1426873	0	object/static/structure/naboo/nboo_imprv_short_curved_wall_large_s01.iff	0	702.387	336.507	580.829	0.707111	0	0.707102	0		$|
1426874	0	object/static/structure/naboo/nboo_imprv_pillar_pillar_s03.iff	0	702.489	336.5	581.744	1	0	0	0		$|
1426875	0	object/static/structure/naboo/nboo_imprv_pillar_pillar_s03.iff	0	718.417	336.5	581.871	1	0	0	0		$|
1426876	0	object/static/structure/naboo/nboo_imprv_pillar_pillar_s03.iff	0	710.667	336.5	573.063	1	0	0	0		$|
1426878	0	object/static/structure/naboo/nboo_imprv_pristine_wall_large_s01.iff	0	720.261	335.24	563.594	1	0	0	0		$|
1426879	0	object/static/structure/naboo/nboo_imprv_pillar_pillar_s01.iff	0	721.106	335.372	563.486	1	0	0	0		$|
1426880	0	object/static/structure/naboo/nboo_imprv_pillar_pillar_s01.iff	0	702.98	335.372	563.558	1	0	0	0		$|
1426900	0	object/static/structure/naboo/nboo_imprv_short_curved_wall_small_s01.iff	0	743.625	360	661.667	-0.00420366	0	0.999991	0		$|
1426902	0	object/static/structure/naboo/nboo_imprv_short_curved_wall_large_s01.iff	0	736.884	360	672.294	0.0142032	0	0.999899	0		$|
1426906	0	object/static/structure/naboo/nboo_imprv_pillar_pillar_s03.iff	0	718.492	336.503	581.927	1	0	0	0		$|
1426907	0	object/static/structure/naboo/nboo_imprv_short_curved_wall_small_s01.iff	0	758.352	360	659.072	0.741832	0	0.670586	0		$|
1426908	0	object/static/structure/naboo/nboo_imprv_short_curved_wall_small_s01.iff	0	761.891	360	663.486	0.050374	0	0.99873	0		$|
1426909	0	object/static/structure/naboo/nboo_imprv_short_curved_wall_small_s01.iff	0	762.765	360	655.535	0.99873	0	-0.0503741	0		$|
1503404	0	object/building/naboo/housing_naboo_style_3.iff	0	868.374	360	639.602	0.000000032	0	1	0		$|
1685119	0	object/building/naboo/housing_naboo_style_1.iff	0	1028.44	350	501.077	0.261909	0	0.965093	0	theme_park.dungeon.generic_spawner	spawn_table|4|datatables/spawning/clone_relic/ep3_deeja_peak_empty_building.iff|$|
1685120	1685119	object/cell/cell.iff	1	0	0	0	1	0	0	0		$|
1685121	1685119	object/cell/cell.iff	2	0	0	0	1	0	0	0		$|
1685122	1685119	object/cell/cell.iff	3	0	0	0	1	0	0	0		$|
1685123	1685119	object/cell/cell.iff	4	0	0	0	1	0	0	0		$|
1685124	1685119	object/cell/cell.iff	5	0	0	0	1	0	0	0		$|
1685125	1685119	object/cell/cell.iff	6	0	0	0	1	0	0	0		$|
1685126	1685119	object/cell/cell.iff	7	0	0	0	1	0	0	0		$|
1685129	0	object/static/structure/naboo/nboo_imprv_pillar_pillar_s01.iff	0	942.647	353.404	513.02	0.96639	0	-0.257081	0		$|
1685130	0	object/static/structure/naboo/nboo_imprv_pillar_pillar_s01.iff	0	946.814	353.503	505.75	0.96639	0	-0.257081	0		$|
1685131	0	object/static/structure/naboo/nboo_imprv_pillar_pillar_s01.iff	0	950.641	348.848	517.45	0.96639	0	-0.257081	0		$|
1685132	0	object/static/structure/naboo/nboo_imprv_pillar_pillar_s01.iff	0	954.808	348.946	510.18	0.96639	0	-0.257081	0		$|
1685136	0	object/static/structure/naboo/nboo_imprv_pillar_pillar_s02.iff	0	934.141	360	508.031	0.865324	0	0.501213	0		$|
1685137	0	object/static/structure/naboo/nboo_imprv_pillar_pillar_s02.iff	0	938.565	360	500.596	0.966288	0	-0.257465	0		$|
1685199	0	object/building/naboo/housing_naboo_style_3.iff	0	968.285	360	602.779	0.751806	0	-0.659385	0		$|
1685202	0	object/building/naboo/housing_naboo_style_3.iff	0	954.52	360	581.071	0.946042	0	-0.324044	0		$|
1685205	0	object/building/naboo/housing_naboo_style_3.iff	0	935.875	360	566.631	0.941075	0	-0.338198	0		$|
1685208	0	object/building/naboo/housing_naboo_style_3.iff	0	928.92	360	638.011	0.304301	0	0.952576	0		$|
1685211	0	object/building/naboo/housing_naboo_style_3.iff	0	912.603	360	613.332	0.699147	0	0.714977	0		$|
1685216	0	object/static/structure/naboo/nboo_imprv_pillar_pillar_s01.iff	0	899.604	360	633.1	0.718189	0	-0.695848	0		$|
1685217	0	object/static/structure/naboo/nboo_imprv_pristine_wall_large_s01.iff	0	919.446	360	632.47	0.999875	0	0.0157962	0		$|
1685230	0	object/static/structure/general/planter_generic_style_4.iff	0	864.406	360	597.698	0.984727	0	-0.174108	0		$|
1685231	0	object/building/naboo/guild_university_naboo_style_01.iff	0	635.271	330	772.52	-0.000000032	0	1	0		$|
1685232	1685231	object/cell/cell.iff	1	0	0	0	1	0	0	0		$|
1685233	1685231	object/cell/cell.iff	2	0	0	0	1	0	0	0		$|
1685234	1685231	object/cell/cell.iff	3	0	0	0	1	0	0	0		$|
1685235	1685231	object/cell/cell.iff	4	0	0	0	1	0	0	0		$|
1685236	1685231	object/cell/cell.iff	5	0	0	0	1	0	0	0		$|
1685237	1685231	object/cell/cell.iff	6	0	0	0	1	0	0	0		$|
1685238	1685231	object/cell/cell.iff	7	0	0	0	1	0	0	0		$|
1685239	1685231	object/cell/cell.iff	8	0	0	0	1	0	0	0		$|
1685240	1685231	object/cell/cell.iff	9	0	0	0	1	0	0	0		$|
1685241	0	object/static/structure/naboo/archway_narrow_s01.iff	0	906.411	360	536.556	0.707109	0	0.707105	0		$|
1688885	0	object/static/structure/naboo/nboo_imprv_pillar_pillar_s07.iff	0	1080.57	346.753	566.559	0.988771	0	0.149439	0		$|
1688887	0	object/static/structure/naboo/arbor_corner_90_s01.iff	0	1084.95	345.845	560.523	-0.124675	0	0.992198	0		$|
1692551	0	object/static/structure/naboo/nboo_imprv_pillar_pillar_s02.iff	0	640.178	330	683.497	-0.707107	0	0.707107	0		$|
1692558	0	object/static/structure/naboo/nboo_imprv_pristine_wall_sml_s03.iff	0	646.283	329.734	636.224	-0.652136	0	0.758102	0		$|
1692559	0	object/static/structure/naboo/nboo_imprv_pillar_pillar_s02.iff	0	646.027	329.734	637.087	0.124675	0	0.992198	0		$|
1692561	0	object/static/structure/naboo/nboo_imprv_pillar_pillar_s02.iff	0	647.907	329.74	625.308	0.0399894	0	0.9992	0		$|
1692565	0	object/static/structure/naboo/nboo_imprv_pristine_wall_sml_s03.iff	0	635.947	330.096	634.766	-0.652136	0	0.758102	0		$|
1692566	0	object/static/structure/naboo/nboo_imprv_pillar_pillar_s02.iff	0	635.829	330.096	635.614	0.079915	0	0.996802	0		$|
1692568	0	object/static/structure/naboo/nboo_imprv_pillar_pillar_s02.iff	0	637.572	330.102	623.851	0.0399889	0	0.9992	0		$|
1692573	0	object/static/structure/naboo/gate_narrow_s02.iff	0	640.916	329.767	636.291	0.0841041	0	0.996457	0		$|
1692614	0	object/static/structure/naboo/nboo_imprv_short_curved_wall_large_s01.iff	0	650.469	330	703.073	-0.00579631	0	0.999983	0		$|
1692615	0	object/static/structure/naboo/nboo_imprv_short_curved_wall_small_s01.iff	0	654.424	330	699.028	0.711194	0	-0.702996	0		$|
1692616	0	object/static/structure/naboo/nboo_imprv_pillar_pillar_s02.iff	0	642.161	330	694.916	0.792804	0	-0.609476	0		$|
1692617	0	object/static/structure/naboo/nboo_imprv_pristine_wall_sml_s03.iff	0	641.988	330	694.133	0.767798	0	-0.640693	0		$|
1692618	0	object/static/structure/naboo/nboo_imprv_pillar_pillar_s02.iff	0	654.581	330	698.258	-0.644522	0	0.764586	0		$|
1692619	0	object/static/structure/naboo/nboo_imprv_pristine_wall_sml_s03.iff	0	654.748	330	697.272	-0.644522	0	0.764586	0		$|
1692620	0	object/static/structure/naboo/nboo_imprv_pillar_pillar_s03.iff	0	650.979	330	703.014	1	0	0	0		$|
1692621	0	object/static/structure/naboo/nboo_imprv_pillar_pillar_s02.iff	0	656.692	329.989	686.571	0.0848983	0	0.99639	0		$|
1692622	0	object/static/structure/naboo/nboo_imprv_pillar_pillar_s02.iff	0	667.557	329.8	706.725	0.721105	0	-0.692826	0		$|
1692623	0	object/static/structure/naboo/nboo_imprv_pristine_wall_sml_s03.iff	0	667.515	329.8	705.727	0.721105	0	-0.692826	0		$|
1692624	0	object/static/structure/naboo/nboo_imprv_pillar_pillar_s02.iff	0	667.184	329.8	694.855	-0.0199984	0	0.9998	0		$|
1692638	0	object/static/structure/naboo/nboo_imprv_pillar_pillar_s02.iff	0	698.094	329.871	781.515	0.774166	0	-0.632983	0		$|
1692639	0	object/static/structure/naboo/nboo_imprv_pristine_wall_sml_s03.iff	0	700.258	329.366	791.945	0.773817	0.0189866	-0.632698	-0.0232215		$|
1692640	0	object/static/structure/naboo/nboo_imprv_pillar_pillar_s02.iff	0	700.378	329.87	792.674	0.774166	0	-0.632983	0		$|
1692641	0	object/static/structure/naboo/nboo_imprv_pristine_wall_sml_s03.iff	0	689.689	330	795.115	-0.110173	0	0.993913	0		$|
1692642	0	object/static/structure/naboo/nboo_imprv_pillar_pillar_s02.iff	0	688.714	330	795.335	-0.110173	0	0.993913	0		$|
1692663	0	object/static/structure/naboo/nboo_imprv_pristine_wall_sml_s03.iff	0	513.088	325.052	725.231	-0.29439	-0.125667	0.946638	0.0376735		$|
1692664	0	object/static/structure/naboo/nboo_imprv_pillar_pillar_s02.iff	0	512.424	324.912	725.677	-0.299026	0.00508014	0.954222	0.0041062		$|
1692667	0	object/static/structure/naboo/nboo_imprv_pillar_pillar_s02.iff	0	521.372	328.111	719.418	-0.286205	-0.0201111	0.957924	0.00796046		$|
1692672	0	object/static/structure/naboo/nboo_imprv_pristine_wall_large_s02.iff	0	513.891	324.433	711.119	0.942773	0.0401628	0.307202	0.123256		$|
1692673	0	object/static/structure/naboo/nboo_imprv_pillar_pillar_s01.iff	0	505.169	321.453	717.472	0.950796	0	0.309816	0		$|
1692675	0	object/static/structure/naboo/nboo_imprv_pillar_pillar_s01.iff	0	513.318	323.979	711.495	0.950796	0	0.309816	0		$|
1692678	0	object/static/structure/naboo/gate_narrow_s02.iff	0	517.423	327.886	715.091	0.908966	0	-0.416871	0		$|
1692679	0	object/static/structure/naboo/nboo_imprv_metal_fence_wall_lg_s02.iff	0	524.655	327.387	723.692	0.462486	0	0.886627	0		$|
1714694	0	object/static/structure/naboo/garden_gazebo_lg_s01.iff	0	612.332	329.902	594.981	1	0	0	0		$|
1714700	0	object/static/structure/naboo/planter_naboo_theed_style_1.iff	0	604.964	330	598.958	1	0	0	0		$|
1714701	0	object/static/structure/general/planter_generic_style_4.iff	0	613.559	330	603.828	0.720281	0	0.693683	0		$|
1714702	0	object/static/structure/naboo/streetlamp_naboo_theed_style_1.iff	0	630.364	301.068	516.802	0.999388	0	0.034993	0		$|
1714703	0	object/static/structure/naboo/streetlamp_naboo_theed_style_1.iff	0	492.802	321.177	739.611	0.898261	0	-0.439462	0		$|
1714704	0	object/static/structure/naboo/nboo_imprv_tall_curved_wall_large_s01.iff	0	643.607	330	718.285	1	0	0	0		$|
1714705	0	object/static/structure/naboo/nboo_imprv_pillar_pillar_s01.iff	0	642.607	330	718.285	1	0	0	0		$|
1714706	0	object/static/structure/naboo/nboo_imprv_pillar_pillar_s01.iff	0	651.607	330	727.285	1	0	0	0		$|
1714708	0	object/static/structure/naboo/nboo_imprv_tall_curved_wall_large_s01.iff	0	618.998	330	726.368	0.707107	0	0.707107	0		$|
1714709	0	object/static/structure/naboo/nboo_imprv_pillar_pillar_s01.iff	0	618.999	330	727.368	0.707107	0	0.707107	0		$|
1714710	0	object/static/structure/naboo/nboo_imprv_pillar_pillar_s01.iff	0	627.999	330	718.368	0.707107	0	0.707107	0		$|
1714712	0	object/static/structure/naboo/nboo_imprv_tall_curved_wall_large_s01.iff	0	628.996	330.796	709.908	0.924909	0	0.380188	0		$|
1714713	0	object/static/structure/naboo/nboo_imprv_pillar_pillar_s01.iff	0	628.285	330	710.611	0.924909	0	0.380188	0		$|
1714714	0	object/static/structure/naboo/nboo_imprv_pillar_pillar_s01.iff	0	641.015	330	710.679	0.924909	0	0.380188	0		$|
1714715	0	object/static/structure/naboo/nboo_imprv_pristine_wall_sml_s03.iff	0	618.951	330	728.108	0.707109	0	0.707105	0		$|
1714716	0	object/static/structure/naboo/nboo_imprv_pristine_wall_sml_s03.iff	0	651.666	330	728.224	0.707107	0	0.707107	0		$|
1714718	0	object/static/structure/naboo/nboo_imprv_pillar_pillar_s01.iff	0	651.506	330	738.687	1	0	0	0		$|
1714719	0	object/static/structure/naboo/nboo_imprv_pillar_pillar_s01.iff	0	618.897	330	738.77	0.707107	0	0.707107	0		$|
1714723	0	object/static/structure/naboo/planter_naboo_theed_style_2.iff	0	618.207	330	632.914	-0.63329	0	0.773915	0		$|
1714744	0	object/static/structure/naboo/nboo_imprv_pillar_pillar_s01.iff	0	919.675	360.126	632.627	0.718191	0	-0.695846	0		$|
1714760	0	object/static/structure/naboo/elevated_walkway_cap_s01.iff	0	1083.69	318.862	497.061	0.992809	0	0.119712	0		$|
1714761	0	object/static/structure/naboo/elevated_walkway_s03.iff	0	1193.75	318.885	470.091	-0.119712	0	0.992809	0		$|
1714762	0	object/static/structure/naboo/elevated_walkway_s03.iff	0	1131.57	318.885	485.305	-0.119712	0	0.992809	0		$|
1714763	0	object/static/structure/naboo/elevated_walkway_s03.iff	0	1162.66	318.885	477.698	-0.119712	0	0.992809	0		$|
1714764	0	object/static/structure/naboo/elevated_walkway_s03.iff	0	1099.74	318.885	493.104	-0.119712	0	0.992809	0		$|
1714781	0	object/building/naboo/housing_naboo_style_1.iff	0	777.682	360	684.487	0.999946	0	0.0104032	0		$|
1714782	1714781	object/cell/cell.iff	1	0	0	0	1	0	0	0		$|
1714783	1714781	object/cell/cell.iff	2	0	0	0	1	0	0	0		$|
1714784	1714781	object/cell/cell.iff	3	0	0	0	1	0	0	0		$|
1714785	1714781	object/cell/cell.iff	4	0	0	0	1	0	0	0		$|
1714786	1714781	object/cell/cell.iff	5	0	0	0	1	0	0	0		$|
1714787	1714781	object/cell/cell.iff	6	0	0	0	1	0	0	0		$|
1714788	1714781	object/cell/cell.iff	7	0	0	0	1	0	0	0		$|
1714818	0	object/static/structure/general/planter_generic_style_4.iff	0	1058.51	346.5	507.828	1	0	0	0		$|
1714819	0	object/static/structure/naboo/nboo_imprv_pristine_wall_large_s01.iff	0	1061.47	346.018	504.636	0.998488	0	-0.0549723	0		$|
1714820	0	object/static/structure/naboo/arbor_short_s01.iff	0	1084.21	345.845	557.616	-0.124675	0	0.992198	0		$|
1714821	0	object/static/structure/naboo/arbor_long_s01.iff	0	1073.31	346.063	564.684	0.870445	-0.0044806	0.492164	-0.00893985		$|
1714822	0	object/static/structure/naboo/nboo_imprv_pillar_wall_ornate_small_s01.iff	0	1077.91	346.5	567.369	-0.140332	0	0.990104	0		$|
1714823	0	object/static/structure/naboo/nboo_imprv_pillar_pillar_s07.iff	0	1077.69	346.721	567.423	0.988771	0	0.149439	0		$|
1714824	0	object/static/structure/naboo/arbor_corner_45_s01.iff	0	1075.58	346.024	565.031	0.609475	0	0.792805	0		$|
1714825	0	object/static/structure/naboo/arbor_long_s02.iff	0	1075.49	345.994	565.037	0.789992	0	-0.613117	0		$|
1714826	0	object/static/structure/naboo/arbor_pillar_s01.iff	0	1065.23	346.026	558.656	0.990216	0	0.139543	0		$|
1714827	0	object/static/structure/naboo/arbor_long_s01.iff	0	1062.9	346.026	549.954	-0.130424	0	0.991458	0		$|
1714828	0	object/static/structure/naboo/arbor_corner_45_s01.iff	0	1066.38	346.026	560.469	0.874982	0	0.484155	0		$|
1714829	0	object/static/structure/naboo/nboo_imprv_pillar_pillar_s07.iff	0	1077.71	346.658	553.154	0.988012	0	0.15438	0		$|
1714830	0	object/static/structure/general/planter_generic_style_4.iff	0	1073.78	346.5	552.543	0.993956	0	-0.109778	0		$|
1714832	0	object/static/structure/naboo/streetlamp_naboo_theed_style_1.iff	0	1023.2	350	512.857	0.963771	0	-0.266732	0		$|
1714833	0	object/static/structure/naboo/nboo_imprv_pillar_pillar_s03.iff	0	766.232	360	660.746	0.99875	0	-0.0499792	0		$|
1714834	0	object/static/structure/naboo/nboo_imprv_pillar_pillar_s03.iff	0	762.761	360	663.531	0.99875	0	-0.049979	0		$|
1714835	0	object/static/structure/naboo/nboo_imprv_pillar_pillar_s03.iff	0	744.594	360	661.911	0.99875	0	-0.049979	0		$|
1714836	0	object/static/structure/naboo/nboo_imprv_pillar_pillar_s03.iff	0	739.675	360.015	657.572	0.99875	0	-0.049979	0		$|
1714837	0	object/static/structure/naboo/nboo_imprv_pillar_pillar_s03.iff	0	736.892	360	672.355	0.99875	0	-0.049979	0		$|
1714838	0	object/static/structure/naboo/nboo_imprv_pillar_pillar_s03.iff	0	729.292	360	664.071	0.99875	0	-0.049979	0		$|
1714839	0	object/static/structure/naboo/nboo_imprv_pristine_wall_large_s02.iff	0	702.596	335.14	563.598	0.998201	0	0.059964	0		$|
1714840	0	object/static/structure/naboo/nboo_imprv_pillar_pillar_s01.iff	0	692.627	335.176	564.861	0.997189	0	0.0749296	0		$|
1714841	0	object/static/structure/naboo/streetlamp_naboo_theed_style_1.iff	0	887.959	360	566.599	1	0	0	0		$|
1716852	0	object/static/structure/naboo/archway_wide_s02.iff	0	1035.55	350	574.179	0.988011	0	0.15438	0		$|
1716854	0	object/static/structure/naboo/archway_narrow_s01.iff	0	1024.12	350	577.839	0.988011	0	0.15438	0		$|
1716855	0	object/static/structure/naboo/nboo_imprv_pillar_pillar_s01.iff	0	1026.98	350	576.925	0.988011	0	0.15438	0		$|
1716856	0	object/static/structure/naboo/nboo_imprv_pillar_pillar_s01.iff	0	1021.27	350	578.755	0.988011	0	0.15438	0		$|
1716857	0	object/static/structure/naboo/archway_narrow_s01.iff	0	1046.98	350	570.518	0.988011	0	0.15438	0		$|
1716858	0	object/static/structure/naboo/nboo_imprv_pillar_pillar_s01.iff	0	1049.84	350	569.604	0.988011	0	0.15438	0		$|
1716859	0	object/static/structure/naboo/nboo_imprv_pillar_pillar_s01.iff	0	1044.12	350	571.434	0.988011	0	0.15438	0		$|
1716860	0	object/static/structure/naboo/archway_wide_s02.iff	0	1024.01	350	587.326	0.589467	0	0.807792	0		$|
1716861	0	object/static/structure/naboo/nboo_imprv_pillar_pillar_s01.iff	0	1026.76	350	595.897	0.988011	0	0.15438	0		$|
1716862	0	object/static/structure/naboo/nboo_imprv_pillar_pillar_s01.iff	0	1028.59	350	601.611	0.807794	0	-0.589465	0		$|
1716863	0	object/static/structure/naboo/archway_narrow_s01.iff	0	1027.67	350	598.754	0.807794	0	-0.589465	0		$|
1716864	0	object/static/structure/naboo/archway_wide_s02.iff	0	1052.58	350	578.174	0.807794	0	-0.589465	0		$|
1716865	0	object/static/structure/naboo/nboo_imprv_pillar_pillar_s01.iff	0	1055.33	350	586.745	0.589467	0	0.807792	0		$|
1716866	0	object/static/structure/naboo/archway_narrow_s01.iff	0	1056.24	350	589.602	0.589467	0	0.807792	0		$|
1716867	0	object/static/structure/naboo/nboo_imprv_pillar_pillar_s01.iff	0	1057.16	350	592.459	0.589468	0	0.807792	0		$|
1716998	0	object/static/structure/naboo/nboo_imprv_metal_fence_wall_sml_s02.iff	0	551.941	330	714.038	0.00499995	0	0.999987	0		$|
1716999	0	object/static/structure/naboo/nboo_imprv_metal_fence_wall_sml_s01.iff	0	552	330	718	0.707108	0	0.707106	0		$|
1717000	0	object/static/structure/naboo/nboo_imprv_metal_fence_wall_sml_s01.iff	0	552	330	723	0.707108	0	-0.707106	0		$|
1717001	0	object/static/structure/naboo/nboo_imprv_metal_fence_wall_sml_s02.iff	0	588.822	330	720.731	0.710655	0	0.70354	0		$|
1717003	0	object/static/structure/naboo/nboo_imprv_metal_fence_wall_sml_s02.iff	0	588.875	330	714.53	0.710651	0	0.703544	0		$|
1717005	0	object/static/structure/general/planter_generic_style_3.iff	0	622.796	330	736.404	1	0	0	0		$|
1717006	0	object/static/structure/general/planter_generic_style_3.iff	0	648.128	330	736.539	1	0	0	0		$|
1717007	0	object/static/structure/general/planter_generic_style_4.iff	0	634.743	330	710.675	1	0	0	0		$|
1717019	0	object/static/structure/general/nboo_imprv_flower_urn_s01.iff	0	651.783	332.018	733.723	1	0	0	0		$|
1717020	0	object/tangible/furniture/all/frn_all_potted_plants_sml_s02.iff	0	620.871	330	731.158	0.253016	0	0.967462	0		$|
1717022	0	object/static/structure/general/nboo_imprv_flower_urn_s01.iff	0	640.823	330	718.181	1	0	0	0		$|
1717023	0	object/static/structure/general/nboo_imprv_flower_urn_s01.iff	0	629.668	330	718.33	1	0	0	0		$|
1717024	0	object/tangible/furniture/all/frn_all_potted_plants_sml_s02.iff	0	620.887	330	727.593	-0.113956	0	0.993486	0		$|
1717025	0	object/tangible/furniture/all/frn_all_potted_plants_sml_s02.iff	0	644.664	330	720.575	0.982936	0	-0.183946	0		$|
1717026	0	object/tangible/furniture/all/frn_all_potted_plants_sml_s02.iff	0	645.154	330	724.106	0.982936	0	0.183946	0		$|
1717028	0	object/tangible/furniture/all/frn_all_potted_plants_sml_s02.iff	0	648.746	330	725.278	0.721383	0	0.692537	0		$|
1717030	0	object/tangible/furniture/all/frn_all_potted_plants_sml_s02.iff	0	649.712	330	727.968	0.965092	0	-0.261909	0		$|
1717031	0	object/tangible/furniture/all/frn_all_potted_plants_sml_s02.iff	0	649.632	330	731.532	0.994493	0	0.104807	0		$|
1717033	0	object/tangible/furniture/all/frn_all_potted_plants_sml_s02.iff	0	626.074	330	720.613	-0.0441904	0	0.999023	0		$|
1717035	0	object/tangible/furniture/all/frn_all_potted_plants_sml_s02.iff	0	625.374	330	724.326	0.510526	0	0.859862	0		$|
1717037	0	object/tangible/furniture/all/frn_all_potted_plants_sml_s02.iff	0	621.936	330	725.269	0.786917	0	0.617059	0		$|
1717038	0	object/static/structure/general/nboo_imprv_flower_urn_s01.iff	0	618.975	331.992	732.69	1	0	0	0		$|
1717039	0	object/static/structure/naboo/nboo_imprv_pillar_pillar_s01.iff	0	635.009	330	729.063	1	0	0	0		$|
1717041	0	object/tangible/terminal/terminal_mission.iff	0	633.656	330	729.053	-0.707107	0	0.707107	0		$|
1717043	0	object/tangible/terminal/terminal_mission.iff	0	636.203	330	729.063	0.707107	0	0.707107	0		$|
1717064	0	object/static/structure/naboo/streetlamp_naboo_theed_style_1.iff	0	544.957	330	693.351	0.9998	0	-0.019999	0		$|
1717067	0	object/static/structure/naboo/nboo_imprv_metal_fence_wall_sml_s01.iff	0	759.13	360	681.966	1	0	0	0		$|
1717068	0	object/static/structure/naboo/nboo_imprv_metal_fence_wall_sml_s02.iff	0	765.642	360	694.424	1	0	0	0		$|
1717069	0	object/static/structure/naboo/nboo_imprv_metal_fence_wall_sml_s02.iff	0	759.39	360	694.422	1	0	0	0		$|
1717070	0	object/static/structure/naboo/nboo_imprv_metal_fence_wall_sml_s02.iff	0	753.131	360	694.412	0.707108	0	-0.707105	0		$|
1717071	0	object/static/structure/naboo/nboo_imprv_metal_fence_wall_sml_s02.iff	0	753.13	360	688.196	0.707108	0	-0.707106	0		$|
1717072	0	object/static/structure/naboo/nboo_imprv_metal_fence_wall_sml_s01.iff	0	753.13	360	681.966	-0.000000032	0	1	0		$|
1717073	0	object/static/structure/general/planter_generic_style_2.iff	0	754.988	360	692.672	1	0	0	0		$|
1717077	0	object/static/structure/general/nboo_imprv_flower_urn_s01.iff	0	753.738	360	686.682	1	0	0	0		$|
1717079	0	object/static/structure/general/nboo_imprv_flower_urn_s01.iff	0	753.825	360	690.868	1	0	0	0		$|
1717080	0	object/static/structure/general/nboo_imprv_flower_urn_s01.iff	0	753.818	360	682.606	1	0	0	0		$|
1717081	0	object/static/structure/general/nboo_imprv_flower_urn_s01.iff	0	765.072	360	693.727	0.707108	0	0.707106	0		$|
1717084	0	object/static/structure/general/nboo_imprv_flower_urn_s01.iff	0	760.886	360	693.814	0.707108	0	0.707106	0		$|
1717085	0	object/static/structure/general/nboo_imprv_flower_urn_s01.iff	0	756.81	360	693.734	0.707108	0	0.707106	0		$|
1717086	0	object/static/structure/naboo/nboo_imprv_pillar_pillar_s03.iff	0	802.919	360	644.92	0.999987	0	0.00500016	0		$|
1717087	0	object/static/structure/naboo/nboo_imprv_pillar_pillar_s03.iff	0	811.383	360	652.32	0.999987	0	0.00500016	0		$|
1717088	0	object/static/structure/naboo/nboo_imprv_short_curved_wall_large_s01.iff	0	811.368	360	652.26	-0.0407852	0	0.999168	0		$|
1717089	0	object/static/structure/naboo/nboo_imprv_pillar_pillar_s03.iff	0	819.808	360	652.196	0.7	0	0.714142	0		$|
1717090	0	object/static/structure/naboo/nboo_imprv_pillar_pillar_s03.iff	0	827.54	360	644.035	0.703562	0	0.710634	0		$|
1717091	0	object/static/structure/naboo/nboo_imprv_short_curved_wall_large_s01.iff	0	827.48	360	644.047	0.72166	0	-0.692247	0		$|
1717096	0	object/static/structure/general/nboo_imprv_flower_urn_s01.iff	0	806.359	360	649.405	1	0	0	0		$|
1717097	0	object/static/structure/general/nboo_imprv_flower_urn_s01.iff	0	824.621	360	648.853	1	0	0	0		$|
1717098	0	object/tangible/furniture/all/frn_all_potted_plants_sml_s02.iff	0	805.398	360.975	650.38	1	0	0	0		$|
1717101	0	object/tangible/furniture/all/frn_all_potted_plants_sml_s02.iff	0	825.739	360.972	649.452	1	0	0	0		$|
1717107	0	object/tangible/terminal/terminal_mission.iff	0	804.471	360	644.856	0.707108	0	0.707106	0		$|
1717110	0	object/tangible/terminal/terminal_mission.iff	0	826.047	360	644.061	0.710634	0	-0.703562	0		$|
1717115	0	object/static/structure/general/planter_generic_style_2.iff	0	831.845	360	611.26	1	0	0	0		$|
1717116	0	object/static/structure/general/planter_generic_style_3.iff	0	788.978	360	636.681	1	0	0	0		$|
1717117	0	object/static/structure/general/planter_generic_style_2.iff	0	767.33	360	611.601	1	0	0	0		$|
1717123	0	object/tangible/furniture/modern/table_modern_style_01.iff	0	785.336	360.601	605.255	0.998488	0	0.0549724	0		$|
1717124	0	object/tangible/furniture/elegant/chair_s01.iff	0	784.353	360.601	603.663	0.998488	0	0.0549724	0		$|
1717125	0	object/tangible/furniture/elegant/chair_s01.iff	0	787.32	360.601	604.837	0.867819	0	-0.49688	0		$|
1717126	0	object/tangible/furniture/elegant/chair_s01.iff	0	784.734	360.601	607.258	0.11057	0	0.993868	0		$|
1717127	0	object/tangible/furniture/modern/table_modern_style_01.iff	0	779.05	360.601	606.038	0.480124	0	0.877201	0		$|
1717128	0	object/tangible/furniture/elegant/chair_s01.iff	0	778.061	360.601	607.624	0.480124	0	0.877201	0		$|
1717129	0	object/tangible/furniture/elegant/chair_s01.iff	0	777.798	360.601	604.444	0.879969	0	0.475032	0		$|
1717130	0	object/tangible/furniture/elegant/chair_s01.iff	0	781.113	360.601	605.69	0.785935	0	-0.61831	0		$|
1717131	0	object/tangible/furniture/modern/table_modern_style_01.iff	0	782.445	360.601	609.858	0.998488	0	0.0549724	0		$|
1717132	0	object/tangible/furniture/elegant/chair_s01.iff	0	781.739	360.601	608.009	0.998488	0	0.0549724	0		$|
1717133	0	object/tangible/furniture/elegant/chair_s01.iff	0	784.707	360.601	609.184	0.867819	0	-0.49688	0		$|
1717134	0	object/tangible/furniture/elegant/chair_s01.iff	0	783.036	360.601	611.58	-0.158532	0	0.987354	0		$|
1717135	0	object/tangible/furniture/elegant/chair_s01.iff	0	780.484	360.601	610.325	0.721383	0	0.692536	0		$|
1717143	0	object/static/structure/naboo/streetlamp_naboo_theed_style_1.iff	0	872.903	360.221	607.006	1	0	0	0		$|
1717149	0	object/tangible/furniture/modern/table_modern_style_01.iff	0	788.209	360.601	544.932	0.972514	0	0.232843	0		$|
1717150	0	object/tangible/furniture/elegant/chair_s01.iff	0	786.897	360.601	543.45	0.972514	0	0.232843	0		$|
1717151	0	object/tangible/furniture/elegant/chair_s01.iff	0	790.088	360.601	543.504	0.942755	0	-0.333487	0		$|
1717152	0	object/tangible/furniture/elegant/chair_s01.iff	0	789.368	360.601	546.336	-0.332736	0	0.94302	0		$|
1717153	0	object/tangible/furniture/elegant/chair_s01.iff	0	786.537	360.601	546.06	0.585745	0	0.810495	0		$|
1717157	0	object/tangible/furniture/modern/table_modern_style_01.iff	0	770.934	360	535.283	0.536088	0	0.844163	0		$|
1717158	0	object/tangible/furniture/elegant/chair_s01.iff	0	769.748	360	536.727	0.536088	0	0.844163	0		$|
1717159	0	object/tangible/furniture/elegant/chair_s01.iff	0	769.899	360	533.54	0.908965	0	0.416872	0		$|
1717160	0	object/tangible/furniture/elegant/chair_s01.iff	0	773.024	360	535.206	0.744111	0	-0.668056	0		$|
1717161	0	object/tangible/furniture/modern/table_modern_style_01.iff	0	774.536	360.601	545.23	0.972514	0	0.232843	0		$|
1717162	0	object/tangible/furniture/elegant/chair_s01.iff	0	773.223	360.601	543.747	0.972514	0	0.232843	0		$|
1717163	0	object/tangible/furniture/elegant/chair_s01.iff	0	776.414	360.601	543.802	0.942755	0	-0.333487	0		$|
1717164	0	object/tangible/furniture/elegant/chair_s01.iff	0	775.694	360.601	546.633	-0.332736	0	0.94302	0		$|
1717165	0	object/tangible/furniture/elegant/chair_s01.iff	0	772.863	360.601	546.358	0.585745	0	0.810495	0		$|
1717166	0	object/tangible/furniture/modern/table_modern_style_01.iff	0	784.648	360	530.539	0.972514	0	0.232843	0		$|
1717167	0	object/tangible/furniture/elegant/chair_s01.iff	0	783.336	360	529.057	0.972514	0	0.232843	0		$|
1717168	0	object/tangible/furniture/elegant/chair_s01.iff	0	786.527	360	529.111	0.942755	0	-0.333487	0		$|
1717169	0	object/tangible/furniture/elegant/chair_s01.iff	0	785.808	360	532.117	-0.332736	0	0.94302	0		$|
1717170	0	object/tangible/furniture/elegant/chair_s01.iff	0	782.977	360	531.841	0.585745	0	0.810495	0		$|
1717192	0	object/building/naboo/housing_naboo_style_3.iff	0	806.447	360	515.781	0.999979	0	-0.00650543	0		$|
1717199	0	object/static/structure/naboo/nboo_imprv_metal_fence_wall_sml_s01.iff	0	829.316	360	495.939	0.99995	0	-0.00999985	0		$|
1717200	0	object/static/structure/naboo/nboo_imprv_metal_fence_wall_sml_s02.iff	0	826.181	360	495.858	0.707108	0	-0.707105	0		$|
1717201	0	object/static/structure/naboo/nboo_imprv_metal_fence_wall_sml_s02.iff	0	826.181	360	489.858	0.707108	0	-0.707105	0		$|
1717202	0	object/static/structure/naboo/nboo_imprv_metal_fence_wall_sml_s02.iff	0	826.181	360	483.858	0.707108	0	-0.707105	0		$|
1717207	0	object/static/structure/naboo/nboo_imprv_metal_fence_wall_sml_s02.iff	0	826.179	360	477.668	-0.398976	0	0.916961	0		$|
1717208	0	object/static/structure/naboo/nboo_imprv_metal_fence_wall_sml_s02.iff	0	830.439	360	473.091	-0.398976	0	0.916961	0		$|
1717209	0	object/static/structure/naboo/nboo_imprv_metal_fence_wall_sml_s02.iff	0	834.655	360	468.556	-0.398976	0	0.916961	0		$|
1717212	0	object/static/structure/naboo/nboo_imprv_metal_fence_wall_sml_s02.iff	0	850.733	360	460.255	-0.154775	0	0.987949	0		$|
1717213	0	object/static/structure/naboo/nboo_imprv_metal_fence_wall_sml_s02.iff	0	844.84	360	462.154	-0.154775	0	0.987949	0		$|
1717214	0	object/static/structure/naboo/nboo_imprv_metal_fence_wall_sml_s02.iff	0	838.888	360	464.069	-0.154775	0	0.987949	0		$|
1717215	0	object/static/structure/naboo/nboo_imprv_metal_fence_wall_sml_s02.iff	0	868.789	360	457.007	-0.0553718	0	0.998466	0		$|
1717216	0	object/static/structure/naboo/nboo_imprv_metal_fence_wall_sml_s02.iff	0	862.636	360	457.698	-0.0553718	0	0.998466	0		$|
1717217	0	object/static/structure/naboo/nboo_imprv_metal_fence_wall_sml_s02.iff	0	856.422	360	458.393	-0.0553718	0	0.998466	0		$|
1717223	0	object/static/structure/naboo/nboo_imprv_metal_fence_wall_sml_s02.iff	0	887.285	360	457.935	0.304677	0	0.952455	0		$|
1717224	0	object/static/structure/naboo/nboo_imprv_metal_fence_wall_sml_s02.iff	0	881.116	360	457.131	0.0645548	0	0.997914	0		$|
1717225	0	object/static/structure/naboo/nboo_imprv_metal_fence_wall_sml_s02.iff	0	874.916	360	456.329	0.0645548	0	0.997914	0		$|
1717227	0	object/static/structure/naboo/nboo_imprv_metal_fence_wall_sml_s02.iff	0	892.353	360	467.816	0.706542	0	0.707671	0		$|
1717228	0	object/static/structure/naboo/nboo_imprv_metal_fence_wall_sml_s02.iff	0	892.34	360	461.566	0.706542	0	0.707671	0		$|
1717230	0	object/static/structure/general/planter_generic_style_4.iff	0	772.274	360	529.378	-0.480124	0	0.8772	0		$|
1717233	0	object/tangible/furniture/elegant/chair_s01.iff	0	791.628	360	524.031	0.828149	0	-0.560509	0		$|
1717234	0	object/tangible/furniture/elegant/chair_s01.iff	0	789.534	360	526.304	-0.084104	0	0.996457	0		$|
1717235	0	object/tangible/furniture/modern/table_modern_style_01.iff	0	789.293	360	524.361	0.9998	0	-0.0199988	0		$|
1717236	0	object/tangible/furniture/elegant/chair_s01.iff	0	788.87	360	522.427	0.9998	0	-0.0199988	0		$|
1717237	0	object/tangible/furniture/elegant/chair_s01.iff	0	787.198	360	524.682	0.771249	0	0.636533	0		$|
1717242	0	object/static/structure/general/planter_generic_style_3.iff	0	793.085	360	520.354	0.700285	0	0.713864	0		$|
1717243	0	object/static/structure/general/planter_generic_style_4.iff	0	835.632	358.125	487.126	0.805072	0	0.593177	0		$|
1717244	0	object/static/structure/general/planter_generic_style_3.iff	0	866.897	360	466.328	1	0	0	0		$|
1717245	0	object/tangible/furniture/elegant/chair_s01.iff	0	877.107	360	458.025	0.986418	0	-0.164252	0		$|
1717246	0	object/tangible/furniture/elegant/chair_s01.iff	0	877.462	360	461.095	-0.491842	0	0.870685	0		$|
1717247	0	object/tangible/furniture/modern/table_modern_style_01.iff	0	875.832	360	460.01	0.917121	0	0.398609	0		$|
1717248	0	object/tangible/furniture/elegant/chair_s01.iff	0	874.091	360	459.068	0.917121	0	0.398609	0		$|
1717249	0	object/tangible/furniture/elegant/chair_s01.iff	0	874.708	360	461.807	0.435685	0	0.900099	0		$|
1717250	0	object/tangible/furniture/elegant/chair_s01.iff	0	885.884	360	461.402	-0.633289	0	0.773915	0		$|
1717251	0	object/tangible/furniture/modern/table_modern_style_01.iff	0	884.127	360	460.391	0.952333	0	-0.30506	0		$|
1717252	0	object/tangible/furniture/elegant/chair_s01.iff	0	884.458	360	458.548	0.952333	0	-0.30506	0		$|
1717253	0	object/tangible/furniture/elegant/chair_s01.iff	0	882.344	360	461.482	0.458047	0	0.888928	0		$|
1717254	0	object/static/structure/naboo/arbor_long_s02.iff	0	829.225	359.656	490.997	0.999987	0	-0.00499998	0		$|
1717255	0	object/static/structure/naboo/arbor_corner_90_s01.iff	0	831.204	359.656	493.017	0.710635	0	0.70356	0		$|
1717256	0	object/static/structure/naboo/arbor_long_s02.iff	0	831.325	359.656	481.018	-0.703562	0	0.710633	0		$|
1717257	0	object/static/structure/naboo/arbor_corner_90_s01.iff	0	829.305	359.656	482.997	0.999987	0	-0.00499967	0		$|
1717258	0	object/static/structure/naboo/arbor_long_s02.iff	0	841.304	359.656	483.117	0.00500001	0	0.999987	0		$|
1717259	0	object/static/structure/naboo/arbor_corner_90_s01.iff	0	839.325	359.656	481.098	-0.703563	0	0.710634	0		$|
1717260	0	object/static/structure/naboo/arbor_long_s02.iff	0	839.204	359.656	493.097	0.710636	0	0.70356	0		$|
1717261	0	object/static/structure/naboo/arbor_corner_90_s01.iff	0	841.224	359.656	491.117	0.00499972	0	0.999988	0		$|
1717273	0	object/static/structure/naboo/archway_narrow_s01.iff	0	853.004	360	498.742	1	0	0	0		$|
1717274	0	object/static/structure/naboo/nboo_imprv_pillar_pillar_s01.iff	0	850.005	360	498.744	1	0	0	0		$|
1717275	0	object/static/structure/naboo/nboo_imprv_pillar_pillar_s01.iff	0	856.003	360	498.743	1	0	0	0		$|
1717299	0	object/static/structure/naboo/nboo_imprv_pillar_wall_ornate_large_s01.iff	0	1076.23	350	667.309	-0.169967	0	0.98545	0		$|
1717300	0	object/static/structure/naboo/nboo_imprv_pillar_wall_ornate_large_s01.iff	0	1091.26	350	661.949	-0.589788	0	0.807558	0		$|
1717301	0	object/static/structure/naboo/nboo_imprv_pillar_wall_ornate_large_s01.iff	0	1083.75	350	664.629	-0.169967	0	0.98545	0		$|
1717303	0	object/static/structure/naboo/nboo_imprv_pillar_wall_ornate_large_s01.iff	0	1068.5	350	669.051	-0.11057	0	0.993868	0		$|
1717307	0	object/static/structure/naboo/nboo_imprv_pillar_pillar_s07.iff	0	1068.22	350.214	669.097	0.993956	0	0.109778	0		$|
1717308	0	object/static/structure/naboo/nboo_imprv_pillar_pillar_s07.iff	0	1091.29	350.126	661.933	0.915116	0	-0.40319	0		$|
1717315	0	object/static/structure/general/nboo_imprv_flower_urn_s01.iff	0	1037.99	346.5	529.456	0.659983	0	0.75128	0		$|
1717323	0	object/static/structure/general/nboo_imprv_flower_urn_s01.iff	0	1039.74	346.5	518.026	0.897248	0	0.441528	0		$|
1717326	0	object/static/structure/general/nboo_imprv_flower_urn_s01.iff	0	1047.65	346.5	511.442	0.968341	0	0.249633	0		$|
1717332	0	object/static/structure/naboo/streetlamp_naboo_theed_style_1.iff	0	1054.94	346.5	548.643	0.946042	0	-0.324043	0		$|
1717333	0	object/static/structure/naboo/streetlamp_naboo_theed_style_1.iff	0	1086.13	346.5	556.809	0.995004	0	0.0998327	0		$|
1717334	0	object/static/structure/naboo/streetlamp_naboo_theed_style_1.iff	0	1077.38	325.995	493.983	0.998201	0	0.0599636	0		$|
1717335	0	object/static/structure/naboo/streetlamp_naboo_theed_style_1.iff	0	1211.48	326	469.1	0.993956	0	0.109778	0		$|
1717336	0	object/static/structure/naboo/streetlamp_naboo_theed_style_1.iff	0	1245.21	327	451.908	0.999887	0	-0.0149999	0		$|
1945387	0	object/building/naboo/capitol_naboo_theed.iff	0	551.31	330	641.53	0.841901	0	0.539632	0		$|
1945388	1945387	object/cell/cell.iff	1	0	0	0	1	0	0	0		$|
1945389	1945387	object/cell/cell.iff	2	0	0	0	1	0	0	0		$|
1945390	1945387	object/cell/cell.iff	3	0	0	0	1	0	0	0		$|
4656394	1945390	object/tangible/collection/rare_melee_hammer_miner.iff	3	-0.157184	2.7079	-28.9712	0.70739	0	0	-0.706823		$|
1945391	1945387	object/cell/cell.iff	4	0	0	0	1	0	0	0		$|
4015374	1945391	object/tangible/terminal/terminal_mission_imperial.iff	4	-0.0322413	7.90013	-38.8244	0.99995	0	0.00999984	0		$|
1945392	1945387	object/cell/cell.iff	5	0	0	0	1	0	0	0		$|
1945393	1945387	object/cell/cell.iff	6	0	0	0	1	0	0	0		$|
1945394	1945387	object/cell/cell.iff	7	0	0	0	1	0	0	0		$|
1945395	1945387	object/cell/cell.iff	8	0	0	0	1	0	0	0		$|
1945396	1945387	object/cell/cell.iff	9	0	0	0	1	0	0	0		$|
1945397	1945387	object/cell/cell.iff	10	0	0	0	1	0	0	0		$|
1945398	1945387	object/cell/cell.iff	11	0	0	0	1	0	0	0		$|
1945408	0	object/static/structure/general/planter_generic_style_4.iff	0	615.044	330	654.225	0.720275	0	0.693689	0		$|
1945409	0	object/static/structure/general/planter_generic_style_4.iff	0	603.141	330	681.805	0.989275	0	0.146067	0		$|
1945410	0	object/static/structure/general/planter_generic_style_4.iff	0	581.662	330	688.393	0.474332	0	0.880346	0		$|
1945411	0	object/static/structure/general/planter_generic_style_4.iff	0	606.284	330	633.787	-0.471328	0	0.881958	0		$|
1945412	0	object/static/structure/general/planter_generic_style_4.iff	0	546.732	330	593.618	0.720276	0	0.693688	0		$|
1945413	0	object/static/structure/general/planter_generic_style_4.iff	0	569.382	330	594.639	0.530512	0	0.847677	0		$|
1945414	0	object/static/structure/general/planter_generic_style_4.iff	0	588.991	330	614.624	0.984127	0	-0.177463	0		$|
1945415	0	object/static/structure/general/planter_generic_style_4.iff	0	526.403	330	686.821	0.752853	0	-0.658189	0		$|
1945416	0	object/static/structure/general/planter_generic_style_4.iff	0	512.461	330	667.3	0.720275	0	0.693689	0		$|
1945417	0	object/static/structure/general/planter_generic_style_4.iff	0	552.767	330	689.902	-0.459461	0	0.888198	0		$|
1945418	0	object/static/structure/general/planter_generic_style_4.iff	0	626.459	330	641.422	0.903295	0	-0.429021	0		$|
1945419	0	object/tangible/furniture/all/frn_all_potted_plants_sml_s02.iff	0	589.828	330	683.442	0.946042	0	0.324043	0		$|
1945420	0	object/tangible/furniture/all/frn_all_potted_plants_sml_s02.iff	0	595.009	330	685.702	0.764841	0	0.644219	0		$|
1945422	0	object/tangible/furniture/all/frn_all_potted_plants_sml_s02.iff	0	572.549	330	686.026	0.440177	0	0.897911	0		$|
1945423	0	object/tangible/furniture/all/frn_all_potted_plants_sml_s02.iff	0	574.533	330	681.827	0.0856907	0	0.996322	0		$|
1945425	0	object/tangible/furniture/all/frn_all_potted_plants_sml_s02.iff	0	567.337	330	689.19	0.774418	0	0.632674	0		$|
1945426	0	object/tangible/furniture/all/frn_all_potted_plants_sml_s02.iff	0	562.226	330	686.776	0.950796	0	0.309816	0		$|
1945428	0	object/tangible/furniture/all/frn_all_potted_plants_sml_s02.iff	0	536.405	330	681.765	0.771245	0	0.636538	0		$|
1945429	0	object/tangible/furniture/all/frn_all_potted_plants_sml_s02.iff	0	531.117	330	678.803	0.946042	0	0.324043	0		$|
1945432	0	object/tangible/furniture/all/frn_all_potted_plants_sml_s02.iff	0	525.706	330	676.821	0.949235	0	0.314566	0		$|
1945437	0	object/tangible/furniture/all/frn_all_potted_plants_sml_s02.iff	0	501.177	330	658.747	0.949236	0	0.314566	0		$|
1945439	0	object/tangible/furniture/all/frn_all_potted_plants_sml_s02.iff	0	506.312	330	661.109	0.771246	0	0.636537	0		$|
1945440	0	object/tangible/furniture/all/frn_all_potted_plants_sml_s02.iff	0	546.338	330	676.244	0.950797	0	0.309816	0		$|
1945441	0	object/tangible/furniture/all/frn_all_potted_plants_sml_s02.iff	0	552.007	330	678.838	0.947651	0	0.319309	0		$|
1945442	0	object/tangible/furniture/all/frn_all_potted_plants_sml_s02.iff	0	557.532	330	681.297	0.774419	0	0.632673	0		$|
1945445	0	object/tangible/furniture/all/frn_all_potted_plants_sml_s02.iff	0	613.231	330	645.875	-0.309816	0	0.950796	0		$|
1945446	0	object/tangible/furniture/all/frn_all_potted_plants_sml_s02.iff	0	608.12	330	643.461	-0.632674	0	0.774418	0		$|
1945448	0	object/tangible/furniture/all/frn_all_potted_plants_sml_s02.iff	0	596.569	330	633.295	0.18925	0	0.981929	0		$|
1945449	0	object/tangible/furniture/all/frn_all_potted_plants_sml_s02.iff	0	599.027	330	628.08	0.247788	0	0.968814	0		$|
1945451	0	object/tangible/furniture/all/frn_all_potted_plants_sml_s02.iff	0	597.669	330	622.588	-0.314566	0	0.949235	0		$|
1945452	0	object/tangible/furniture/all/frn_all_potted_plants_sml_s02.iff	0	592.534	330	620.224	-0.636539	0	0.771245	0		$|
1945454	0	object/tangible/furniture/all/frn_all_potted_plants_sml_s02.iff	0	569.093	330	603.459	-0.568762	0	0.822502	0		$|
1945455	0	object/tangible/furniture/all/frn_all_potted_plants_sml_s02.iff	0	563.83	330	601.105	-0.518419	0	0.855126	0		$|
1945457	0	object/tangible/furniture/all/frn_all_potted_plants_sml_s02.iff	0	557.413	330	600.424	0.982863	0	-0.184338	0		$|
1945458	0	object/tangible/furniture/all/frn_all_potted_plants_sml_s02.iff	0	555.008	330	605.664	0.970041	0	-0.242941	0		$|
1945460	0	object/tangible/furniture/all/frn_all_potted_plants_sml_s02.iff	0	543.97	330	601.355	-0.560509	0	0.828149	0		$|
1945461	0	object/tangible/furniture/all/frn_all_potted_plants_sml_s02.iff	0	538.754	330	598.897	-0.509842	0	0.860268	0		$|
1945463	0	object/tangible/furniture/all/frn_all_potted_plants_sml_s02.iff	0	549.265	330	603.652	-0.560509	0	0.828149	0		$|
1945466	0	object/tangible/furniture/all/frn_all_potted_plants_sml_s02.iff	0	579.197	330	617.413	-0.560509	0	0.828149	0		$|
1945467	0	object/tangible/furniture/all/frn_all_potted_plants_sml_s02.iff	0	573.982	330	614.955	-0.509842	0	0.860268	0		$|
1945468	0	object/tangible/furniture/all/frn_all_potted_plants_sml_s02.iff	0	584.492	330	619.71	-0.560509	0	0.828149	0		$|
2705581	0	object/static/structure/naboo/nboo_imprv_pristine_wall_sml_s03.iff	0	671.135	333.575	637.84	-0.605805	-0.0507285	0.793956	0.00779846		$|
2705582	0	object/static/structure/naboo/nboo_imprv_pillar_pillar_s02.iff	0	670.924	333.56	638.792	0.124619	-0.0297615	0.991752	-0.00373969		$|
2705583	0	object/static/structure/naboo/nboo_imprv_pillar_pillar_s02.iff	0	673.714	334.473	627.366	0.134588	0.00495449	0.990889	0.00067295		$|
2705584	0	object/static/structure/naboo/nboo_imprv_pristine_wall_sml_s03.iff	0	664.22	330.003	663.811	-0.639891	-0.0320212	0.766839	-0.0383739		$|
2705585	0	object/static/structure/naboo/nboo_imprv_pillar_pillar_s02.iff	0	664.065	329.994	664.816	0.0697953	-0.0647952	0.995445	-0.0045431		$|
2705586	0	object/static/structure/naboo/nboo_imprv_pillar_pillar_s02.iff	0	666.194	330.004	653.427	0.0896883	-0.0646913	0.993849	-0.00583797		$|
2725352	0	object/building/naboo/guild_theater_naboo_s01.iff	0	833.08	360	574.77	0.710636	0	-0.70356	0		$|
2725353	2725352	object/cell/cell.iff	1	0	0	0	1	0	0	0		$|
2725354	2725352	object/cell/cell.iff	2	0	0	0	1	0	0	0		$|
2725355	2725352	object/cell/cell.iff	3	0	0	0	1	0	0	0		$|
2725356	2725352	object/cell/cell.iff	4	0	0	0	1	0	0	0		$|
2725357	2725352	object/cell/cell.iff	5	0	0	0	1	0	0	0		$|
2725358	2725352	object/cell/cell.iff	6	0	0	0	1	0	0	0		$|
2725359	2725352	object/cell/cell.iff	7	0	0	0	1	0	0	0		$|
2725360	2725352	object/cell/cell.iff	8	0	0	0	1	0	0	0		$|
2725361	2725352	object/cell/cell.iff	9	0	0	0	1	0	0	0		$|
2725362	2725352	object/cell/cell.iff	10	0	0	0	1	0	0	0		$|
2776142	0	object/tangible/furniture/all/frn_bench_generic.iff	0	552.327	330	605.098	0.213347	0	0.976976	0		$|
2776143	0	object/tangible/furniture/all/frn_bench_generic.iff	0	546.6	330	602.555	0.213347	0	0.976976	0		$|
2776144	0	object/tangible/furniture/all/frn_bench_generic.iff	0	541.248	330	600.226	0.213347	0	0.976976	0		$|
2776145	0	object/tangible/furniture/all/frn_bench_generic.iff	0	556.16	330	603.23	-0.537693	0	0.84314	0		$|
2776146	0	object/tangible/furniture/all/frn_bench_generic.iff	0	566.416	330	602.24	0.215983	0	0.976397	0		$|
2776147	0	object/tangible/furniture/all/frn_bench_generic.iff	0	576.501	330	616.241	0.213347	0	0.976976	0		$|
2776148	0	object/tangible/furniture/all/frn_bench_generic.iff	0	581.741	330	618.661	0.213347	0	0.976976	0		$|
2776149	0	object/tangible/furniture/all/frn_bench_generic.iff	0	594.961	330	622.183	0.213347	0	0.976976	0		$|
2776150	0	object/tangible/furniture/all/frn_bench_generic.iff	0	597.705	330	630.571	0.841687	0	0.539966	0		$|
2776151	0	object/tangible/furniture/all/frn_bench_generic.iff	0	610.473	330	645.467	0.213347	0	0.976976	0		$|
2776153	0	object/tangible/furniture/all/frn_bench_generic.iff	0	592.593	330	683.754	0.976977	0	-0.213347	0		$|
2776154	0	object/tangible/furniture/all/frn_bench_generic.iff	0	573.524	330	683.992	0.841687	0	0.539966	0		$|
2776155	0	object/tangible/furniture/all/frn_bench_generic.iff	0	564.96	330	687.227	0.976977	0	-0.213347	0		$|
2776156	0	object/tangible/furniture/all/frn_bench_generic.iff	0	554.868	330	679.901	0.976977	0	-0.213347	0		$|
2776157	0	object/tangible/furniture/all/frn_bench_generic.iff	0	549.325	330	677.248	0.976977	0	-0.213347	0		$|
2776158	0	object/tangible/furniture/all/frn_bench_generic.iff	0	533.988	330	679.803	0.976977	0	-0.213347	0		$|
2776159	0	object/tangible/furniture/all/frn_bench_generic.iff	0	528.399	330	677.26	0.976977	0	-0.213347	0		$|
2776160	0	object/tangible/furniture/all/frn_bench_generic.iff	0	503.9	330	659.159	0.976977	0	-0.213347	0		$|
2776161	0	object/tangible/furniture/all/frn_bench_generic.iff	0	1040.25	346.5	536.05	0.514819	0	0.857299	0		$|
2776162	0	object/tangible/furniture/all/frn_bench_generic.iff	0	1044.21	346.5	542.123	0.385543	0	0.92269	0		$|
2776163	0	object/tangible/furniture/all/frn_bench_generic.iff	0	1038	346.5	523.671	0.758362	0	0.651834	0		$|
2776164	0	object/tangible/furniture/all/frn_bench_generic.iff	0	1043.61	346.511	514.013	0.922997	0	0.384808	0		$|
2776165	0	object/tangible/furniture/all/frn_bench_generic.iff	0	1051.38	346.5	509.857	0.998488	0	0.0549723	0		$|
2776166	0	object/tangible/furniture/all/frn_bench_generic.iff	0	762.966	360	693.666	-0.000000032	0	1	0		$|
2776167	0	object/tangible/furniture/all/frn_bench_generic.iff	0	758.874	360	693.724	-0.000000032	0	1	0		$|
2776168	0	object/tangible/furniture/all/frn_bench_generic.iff	0	753.911	360	688.721	0.707107	0	0.707106	0		$|
2776169	0	object/tangible/furniture/all/frn_bench_generic.iff	0	753.848	360	684.767	0.707107	0	0.707106	0		$|
2776170	0	object/tangible/furniture/all/frn_bench_generic.iff	0	755.911	360	682.721	1	0	0	0		$|
2776171	0	object/tangible/furniture/all/frn_bench_generic.iff	0	834.898	360	483.184	1	0	0	0		$|
2776172	0	object/tangible/furniture/all/frn_bench_generic.iff	0	831.257	360	486.99	0.707107	0	0.707107	0		$|
2776173	0	object/tangible/furniture/all/frn_bench_generic.iff	0	835.224	360	491.258	-0.000000032	0	1	0		$|
2776174	0	object/tangible/furniture/all/frn_bench_generic.iff	0	839.374	360	487.163	0.707107	0	-0.707107	0		$|
2776175	0	object/tangible/furniture/all/frn_bench_generic.iff	0	825.479	360	646.541	-0.640691	0	0.767799	0		$|
2776176	0	object/tangible/furniture/all/frn_bench_generic.iff	0	822.08	360	650.273	-0.124675	0	0.992198	0		$|
2776177	0	object/tangible/furniture/all/frn_bench_generic.iff	0	808.927	360	650.596	0.0707372	0	0.997495	0		$|
2776178	0	object/tangible/furniture/all/frn_bench_generic.iff	0	804.918	360	647.212	0.593498	0	0.804835	0		$|
2776179	0	object/tangible/furniture/all/frn_bench_generic.iff	0	646.861	330	725.415	1	0	0	0		$|
2776180	0	object/tangible/furniture/all/frn_bench_generic.iff	0	644.384	330	722.337	0.707107	0	-0.707106	0		$|
2776181	0	object/tangible/furniture/all/frn_bench_generic.iff	0	649.63	330	729.742	0.707107	0	-0.707106	0		$|
2776182	0	object/tangible/furniture/all/frn_bench_generic.iff	0	626.391	330	722.562	0.707107	0	0.707106	0		$|
2776183	0	object/tangible/furniture/all/frn_bench_generic.iff	0	623.756	330	725.143	1	0	0	0		$|
2776184	0	object/tangible/furniture/all/frn_bench_generic.iff	0	621.104	330	729.441	0.707107	0	0.707106	0		$|
2776185	0	object/tangible/furniture/all/frn_bench_generic.iff	0	645.417	332.5	754.233	-0.000000032	0	1	0		$|
2776186	0	object/tangible/furniture/all/frn_bench_generic.iff	0	625.028	332.5	754.201	-0.000000032	0	1	0		$|
2776187	0	object/tangible/furniture/all/frn_bench_generic.iff	0	1244.8	327.107	492.904	0.368783	0	0.929516	0		$|
2776188	0	object/tangible/furniture/all/frn_bench_generic.iff	0	1249.53	327.003	495.51	0.165038	0	0.986287	0		$|
2776189	0	object/tangible/furniture/all/frn_bench_generic.iff	0	1255.12	326.959	496.482	-0.0199987	0	0.9998	0		$|
2776190	0	object/tangible/furniture/all/frn_bench_generic.iff	0	1260.75	326.997	495.644	-0.099041	0	0.995083	0		$|
2776191	0	object/tangible/furniture/all/frn_bench_generic.iff	0	898.33	360	484.934	1	0	0	0		$|
2776192	0	object/tangible/furniture/all/frn_bench_generic.iff	0	893.534	360	489.651	0.707107	0	0.707107	0		$|
3295533	0	object/static/naboo/waterfall_mist_small.iff	0	1078.29	325.1	466.201	1	0	0	0		$|
3295535	0	object/static/naboo/waterfall_mist_small.iff	0	1090.82	325.565	448.221	1	0	0	0		$|
4015372	0	object/tangible/terminal/terminal_mission_imperial.iff	0	765.372	360	663.135	0.94441	0	0.328769	0		$|
4295393	0	object/building/general/naboo_veermok_cave.iff	0	1607.38	290.343	490.454	0.661411	0	0.750023	0		$|
4295394	4295393	object/cell/cell.iff	1	0	0	0	1	0	0	0		$|
4295406	4295394	object/tangible/poi/spawnegg/interior_spawnegg.iff	1	22.82221031	-27.42152786	-8.679873466	1	0	0	0		intRandomYaw|0|1|$|
4295395	4295393	object/cell/cell.iff	2	0	0	0	1	0	0	0		$|
261338	4295395	object/tangible/container/loot/placable_loot_crate.iff	2	56.9158	-48.4	-58.3167	-0.698565	-0.0490477	0.712575	-0.0428739		$|
7955562	4295395	object/tangible/container/loot/placable_loot_crate.iff	2	49.4684	-67.601	-49.5312	0.724101	-0.0309911	0.688226	-0.0326066		$|
4295408	4295395	object/tangible/poi/spawnegg/interior_spawnegg.iff	2	46.67683029	-47.72733307	-62.67521667	1	0	0	0		intRandomYaw|0|1|$|
4295414	4295395	object/tangible/poi/spawnegg/interior_spawnegg.iff	2	44.37138748	-47.18875122	-10.33863163	1	0	0	0		intRandomYaw|0|1|$|
4295416	4295395	object/tangible/poi/spawnegg/interior_spawnegg.iff	2	54.24856567	-68.09195709	-37.7426796	1	0	0	0		intRandomYaw|0|1|$|
4295396	4295393	object/cell/cell.iff	3	0	0	0	1	0	0	0		$|
7955563	4295396	object/tangible/container/loot/placable_loot_crate.iff	3	96.594	-61.9787	-12.5527	-0.64864	0	0.761095	0		$|
4295415	4295396	object/tangible/poi/spawnegg/interior_spawnegg.iff	3	78.5218811	-61.28669739	-10.3177824	1	0	0	0		intRandomYaw|0|1|$|
4295397	4295393	object/cell/cell.iff	4	0	0	0	1	0	0	0		$|
4295417	4295397	object/tangible/poi/spawnegg/interior_spawnegg.iff	4	74.33669281	-75.00700378	-61.3781395	1	0	0	0		intRandomYaw|0|1|$|
4295398	4295393	object/cell/cell.iff	5	0	0	0	1	0	0	0		$|
4295409	4295398	object/tangible/poi/spawnegg/interior_spawnegg.iff	5	88.60248566	-46.30028152	-109.0453873	1	0	0	0		intRandomYaw|0|1|$|
4295399	4295393	object/cell/cell.iff	6	0	0	0	1	0	0	0		$|
4295400	4295393	object/cell/cell.iff	7	0	0	0	1	0	0	0		$|
4295413	4295400	object/tangible/poi/spawnegg/interior_spawnegg.iff	7	92.05145264	-66.00579834	-127.1599884	1	0	0	0		intRandomYaw|0|1|$|
4295401	4295393	object/cell/cell.iff	8	0	0	0	1	0	0	0		$|
7955560	4295401	object/tangible/container/loot/placable_loot_crate.iff	8	136.93	-66.042	-108.986	-0.663232	-0.0128662	0.748079	-0.018322		$|
44295412	4295401	object/tangible/poi/spawnegg/interior_spawnegg.iff	8	133.4367065	-66.45140839	-108.2828217	1	0	0	0		intRandomYaw|0|1|$|
4295402	4295393	object/cell/cell.iff	9	0	0	0	1	0	0	0		$|
7955561	4295402	object/tangible/container/loot/placable_loot_crate.iff	9	194.356	-66.8757	-102.266	0.721382	0	-0.692537	0		$|
4295411	4295402	object/tangible/poi/spawnegg/interior_spawnegg.iff	9	186.3782806	-65.51856232	-103.558342	1	0	0	0		intRandomYaw|0|1|$|
4295403	4295393	object/cell/cell.iff	10	0	0	0	1	0	0	0		$|
4295404	4295393	object/cell/cell.iff	11	0	0	0	1	0	0	0		$|
7955559	4295404	object/tangible/container/loot/placable_loot_crate.iff	11	77.4869	-45.8755	-147.041	0.967663	0	0.252245	0		$|
4295410	4295404	object/tangible/poi/spawnegg/interior_spawnegg.iff	11	76.96411896	-45.88427734	-142.9711914	1	0	0	0		intRandomYaw|0|1|$|
4295418	0	object/building/endor/endor_tiki_torch.iff	0	1617.57	293.152	499.797	0.96639	0	0	-0.257081		$|
4295419	0	object/building/endor/endor_tiki_torch.iff	0	1619.08	293.92	514.727	0.96639	0	0	-0.257081		$|
4655562	0	object/tangible/furniture/modern/table_modern_style_01.iff	0	1079.47	350	601.061	0.972514	0	0.232843	0		$|
4655563	0	object/tangible/furniture/elegant/chair_s01.iff	0	1078.16	350	599.579	0.972514	0	0.232843	0		$|
4655564	0	object/tangible/furniture/elegant/chair_s01.iff	0	1081.35	350	599.633	0.942755	0	-0.333487	0		$|
4655565	0	object/tangible/furniture/elegant/chair_s01.iff	0	1080.63	350	602.639	-0.332736	0	0.94302	0		$|
4655566	0	object/tangible/furniture/elegant/chair_s01.iff	0	1077.8	350	602.364	0.585745	0	0.810495	0		$|
4655567	0	object/tangible/furniture/modern/table_modern_style_01.iff	0	1083.28	350	613.591	0.972514	0	0.232843	0		$|
4655568	0	object/tangible/furniture/elegant/chair_s01.iff	0	1081.97	350	612.109	0.972514	0	0.232843	0		$|
4655569	0	object/tangible/furniture/elegant/chair_s01.iff	0	1085.16	350	612.163	0.942755	0	-0.333487	0		$|
4655570	0	object/tangible/furniture/elegant/chair_s01.iff	0	1084.44	350	615.169	-0.332736	0	0.94302	0		$|
4655571	0	object/tangible/furniture/elegant/chair_s01.iff	0	1081.61	350	614.893	0.585745	0	0.810495	0		$|
4655572	0	object/tangible/furniture/modern/table_modern_style_01.iff	0	1066.72	350	648.203	0.972514	0	0.232843	0		$|
4655573	0	object/tangible/furniture/elegant/chair_s01.iff	0	1065.41	350	646.721	0.972514	0	0.232843	0		$|
4655574	0	object/tangible/furniture/elegant/chair_s01.iff	0	1068.6	350	646.775	0.942755	0	-0.333487	0		$|
4655575	0	object/tangible/furniture/elegant/chair_s01.iff	0	1067.88	350	649.781	-0.332736	0	0.94302	0		$|
4655576	0	object/tangible/furniture/elegant/chair_s01.iff	0	1065.05	350	649.505	0.585745	0	0.810495	0		$|
4655577	0	object/tangible/furniture/modern/table_modern_style_01.iff	0	1067.8	350	660.824	0.972514	0	0.232843	0		$|
4655578	0	object/tangible/furniture/elegant/chair_s01.iff	0	1066.49	350	659.342	0.972514	0	0.232843	0		$|
4655579	0	object/tangible/furniture/elegant/chair_s01.iff	0	1069.68	350	659.396	0.942755	0	-0.333487	0		$|
4655580	0	object/tangible/furniture/elegant/chair_s01.iff	0	1068.96	350	662.403	-0.332736	0	0.94302	0		$|
4655581	0	object/tangible/furniture/elegant/chair_s01.iff	0	1066.13	350	662.127	0.585745	0	0.810495	0		$|
4655582	0	object/tangible/furniture/modern/table_modern_style_01.iff	0	1087.29	350	652.386	0.972514	0	0.232843	0		$|
4655583	0	object/tangible/furniture/elegant/chair_s01.iff	0	1085.98	350	650.904	0.972514	0	0.232843	0		$|
4655584	0	object/tangible/furniture/elegant/chair_s01.iff	0	1089.17	350	650.958	0.942755	0	-0.333487	0		$|
4655585	0	object/tangible/furniture/elegant/chair_s01.iff	0	1088.45	350	653.964	-0.332736	0	0.94302	0		$|
4655586	0	object/tangible/furniture/elegant/chair_s01.iff	0	1085.62	350	653.688	0.585745	0	0.810495	0		$|
4655587	0	object/tangible/furniture/modern/table_modern_style_01.iff	0	1079.29	350	660.225	0.972514	0	0.232843	0		$|
4655588	0	object/tangible/furniture/elegant/chair_s01.iff	0	1077.98	350	658.743	0.972514	0	0.232843	0		$|
4655589	0	object/tangible/furniture/elegant/chair_s01.iff	0	1081.17	350	658.797	0.942755	0	-0.333487	0		$|
4655590	0	object/tangible/furniture/elegant/chair_s01.iff	0	1080.45	350	661.803	-0.332736	0	0.94302	0		$|
4655591	0	object/tangible/furniture/elegant/chair_s01.iff	0	1077.62	350	661.528	0.585745	0	0.810495	0		$|
4655592	0	object/tangible/furniture/modern/table_modern_style_01.iff	0	1080.03	350	645.518	0.972514	0	0.232843	0		$|
4655593	0	object/tangible/furniture/elegant/chair_s01.iff	0	1078.72	350	644.035	0.972514	0	0.232843	0		$|
4655594	0	object/tangible/furniture/elegant/chair_s01.iff	0	1081.91	350	644.09	0.942755	0	-0.333487	0		$|
4655595	0	object/tangible/furniture/elegant/chair_s01.iff	0	1081.19	350	647.096	-0.332736	0	0.94302	0		$|
4655596	0	object/tangible/furniture/elegant/chair_s01.iff	0	1078.36	350	646.82	0.585745	0	0.810495	0		$|
4655645	0	object/tangible/terminal/terminal_bank.iff	0	845.17	360.601	599.916	0.870293	0	0.492535	0		$|
4655646	0	object/tangible/terminal/terminal_bank.iff	0	844.447	360.574	549.29	0.471328	0	0.881958	0		$|
4655647	0	object/tangible/terminal/terminal_bank.iff	0	1044.56	350	572.859	0.987227	0	0.159318	0		$|
4655648	0	object/tangible/terminal/terminal_bank.iff	0	1027.46	350	578.422	0.988771	0	0.149438	0		$|
4776039	0	object/tangible/terminal/terminal_bazaar.iff	0	1243.47	327.018	487.834	0.999905	-0.0137061	2.08092E-05	-0.0015181		$|
4776042	0	object/tangible/terminal/terminal_bazaar.iff	0	840.82	360.693	546.366	-0.00499995	0	0.999987	0		$|
4776043	0	object/tangible/terminal/terminal_bazaar.iff	0	841.274	360.717	603.039	0.999987	0	0.00500004	0		$|
4776044	0	object/tangible/terminal/terminal_bazaar.iff	0	634.601	330	705.935	-0.005	0	0.999987	0		$|
5555386	0	object/static/structure/naboo/streetlamp_naboo_theed_style_1.iff	0	1148.21	326	479.01	0.993395	0	0.114747	0		$|
5555390	0	object/static/structure/naboo/streetlamp_naboo_theed_style_1.iff	0	939.992	360	639.381	0.967663	0	-0.252245	0		$|
5555398	0	object/static/structure/naboo/streetlamp_naboo_theed_style_1.iff	0	925.025	360	566.686	0.908966	0	0.416871	0		$|
5555440	0	object/static/structure/general/streetlamp_medium_green_style_02.iff	0	782.229	360.606	604.258	1	0	0	0		$|
5555482	0	object/static/structure/naboo/streetlamp_naboo_theed_style_1.iff	0	733.078	344.699	616.201	1	0	0	0		$|
5555483	0	object/static/structure/general/streetlamp_small_style_01.iff	0	587.477	338.411	658.141	-0.000000028	0.841901	-3.09278E-08	-0.539632		$|
6015482	0	object/static/structure/general/streetlamp_small_style_02.iff	0	862.534	359.02	560.734	1	0	0	0		$|
6015483	0	object/static/structure/general/streetlamp_small_style_02.iff	0	862.81	359.02	588.279	1	0	0	0		$|
6015484	0	object/static/structure/general/streetlamp_small_style_02.iff	0	768.779	360	628.682	1	0	0	0		$|
6015485	0	object/static/structure/naboo/streetlamp_naboo_theed_style_1.iff	0	936.136	360.047	499.172	0.964382	0	-0.264513	0		$|
6015486	0	object/static/structure/naboo/streetlamp_naboo_theed_style_1.iff	0	1047.15	346.5	510.312	1	0	0	0		$|
6336694	0	object/tangible/terminal/terminal_mission_artisan.iff	0	634.895	330	730.432	1	0	0	0		$|
6336696	0	object/tangible/terminal/terminal_mission_artisan.iff	0	635.083	330	727.695	-0.000000032	0	1	0		$|
6336698	0	object/tangible/terminal/terminal_mission_scout.iff	0	627.964	330	719.768	1	0	0	0		$|
6336700	0	object/tangible/terminal/terminal_mission_scout.iff	0	642.544	330	719.75	1	0	0	0		$|
6336702	0	object/tangible/terminal/terminal_mission_artisan.iff	0	819.973	360	650.928	-0.0149995	0	0.999888	0		$|
6336704	0	object/tangible/terminal/terminal_mission_artisan.iff	0	811.455	360	650.96	-0.00499953	0	0.999988	0		$|
6336706	0	object/tangible/terminal/terminal_mission_entertainer.iff	0	851.756	360.569	573.427	0.707107	0	0.707106	0		$|
6336708	0	object/tangible/terminal/terminal_mission_entertainer.iff	0	851.756	360.569	575.427	0.707107	0	0.707106	0		$|
6336712	0	object/tangible/terminal/terminal_mission_entertainer.iff	0	819.86	360.579	603.358	1	0	0	0		$|
6336714	0	object/tangible/terminal/terminal_mission_entertainer.iff	0	817.86	360.579	603.358	1	0	0	0		$|
6336716	0	object/tangible/terminal/terminal_mission_entertainer.iff	0	816.034	360.582	546.664	-3.48103E-07	0	1	0		$|
6336718	0	object/tangible/terminal/terminal_mission_entertainer.iff	0	818.034	360.582	546.664	-3.48103E-07	0	1	0		$|
6875380	0	object/soundobject/soundobject_city_crowd_medium.iff	0	1038.79	350	580.237	1	0	0	0		$|
6875387	0	object/soundobject/soundobject_city_crowd_medium.iff	0	1254.53	326.984	496.048	1	0	0	0		$|
6875402	0	object/soundobject/soundobject_city_crowd_medium.iff	0	780.415	360	532.677	1	0	0	0		$|
6875408	0	object/soundobject/soundobject_city_crowd_small.iff	0	593.562	330	657.201	1	0	0	0		$|
6875419	0	object/soundobject/soundobject_city_crowd_small.iff	0	635.87	330	738.272	1	0	0	0		$|
6905359	0	object/soundobject/soundobject_city_crowd_medium.iff	0	810.879	360	625.61	1	0	0	0		$|
6905367	0	object/soundobject/soundobject_city_crowd_small.iff	0	927.22	360	600.021	1	0	0	0		$|
6905373	0	object/soundobject/soundobject_city_crowd_small.iff	0	1063.81	350	651.373	1	0	0	0		$|
7005401	0	object/static/naboo/waterfall_200m.iff	0	1082.67	389.906	401.239	1	0	0	0		$|
7085363	0	object/static/naboo/waterfall_200m.iff	0	1090.74	331.504	464.983	0.926798	0	0.375559	0		$|
8725359	0	object/static/structure/naboo/nboo_imprv_pillar_pillar_s07.iff	0	1093.75	350.158	654.138	0.990216	0	-0.139543	0		$|
8725360	0	object/static/structure/general/nboo_imprv_flower_urn_s01.iff	0	1041.95	346.504	539.166	0.659983	0	0.75128	0		$|
8845415	0	object/tangible/sign/all_sign_city_s03.iff	0	1219.68	326	460.214	0.805072	0	-0.593177	0		$|
8845416	0	object/building/naboo/association_hall_civilian_naboo.iff	0	815.466	360	675.014	-0.000000032	0	1	0		$|
8845417	8845416	object/cell/cell.iff	1	0	0	0	1	0	0	0		$|
8845418	8845416	object/cell/cell.iff	2	0	0	0	1	0	0	0		$|
8845419	8845416	object/cell/cell.iff	3	0	0	0	1	0	0	0		$|
8845420	8845416	object/cell/cell.iff	4	0	0	0	1	0	0	0		$|
8845421	8845416	object/cell/cell.iff	5	0	0	0	1	0	0	0		$|
8845422	8845416	object/cell/cell.iff	6	0	0	0	1	0	0	0		$|
8845423	8845416	object/cell/cell.iff	7	0	0	0	1	0	0	0		$|
8845424	8845416	object/cell/cell.iff	8	0	0	0	1	0	0	0		$|
8845425	8845416	object/cell/cell.iff	9	0	0	0	1	0	0	0		$|
8845426	8845416	object/cell/cell.iff	10	0	0	0	1	0	0	0		$|
8845427	8845416	object/cell/cell.iff	11	0	0	0	1	0	0	0		$|
8845428	8845416	object/cell/cell.iff	12	0	0	0	1	0	0	0		$|
8845429	8845416	object/cell/cell.iff	13	0	0	0	1	0	0	0		$|
8845430	8845416	object/cell/cell.iff	14	0	0	0	1	0	0	0		$|
8845431	8845416	object/cell/cell.iff	15	0	0	0	1	0	0	0		$|
8845432	8845416	object/cell/cell.iff	16	0	0	0	1	0	0	0		$|
8845433	8845416	object/cell/cell.iff	17	0	0	0	1	0	0	0		$|
8905413	0	object/static/structure/naboo/nboo_imprv_flagpole_s01.iff	0	1019.8	358.251	607.427	1	0	0	0		$|
8905414	0	object/static/structure/naboo/nboo_imprv_flagpole_s01.iff	0	1067.47	358.251	592.179	1	0	0	0		$|
8905415	0	object/static/structure/naboo/nboo_imprv_flagpole_s01.iff	0	797.541	372.497	658.666	1	0	0	0		$|
8905416	0	object/static/structure/naboo/nboo_imprv_flagpole_s01.iff	0	833.594	372.497	658.882	1	0	0	0		$|
8905421	0	object/static/structure/naboo/nboo_imprv_bannerpole_s01.iff	0	609.558	330.408	658.69	0.840441	0	0.541903	0		$|
8905422	0	object/static/structure/naboo/nboo_imprv_bannerpole_s01.iff	0	602.289	330.408	674.594	0.840441	0	0.541903	0		$|
8905423	0	object/static/structure/naboo/nboo_imprv_flagpole_s01.iff	0	594.185	343.261	643.37	1	0	0	0		$|
8905424	0	object/static/structure/naboo/nboo_imprv_flagpole_s01.iff	0	580.674	343.261	672.894	1	0	0	0		$|
8905425	0	object/static/structure/naboo/nboo_imprv_flagpole_s01.iff	0	1243.93	335.799	455.874	1	0	0	0		$|
8905429	0	object/static/structure/general/cave_wall_damprock_style_01.iff	0	1079.09	381.929	385.016	0.973472	0.019472	0.00455925	-0.227932		$|
8905430	0	object/static/structure/general/cave_wall_damprock_style_01.iff	0	1089.36	381.966	384.345	0.948956	0.0228705	-0.00943468	0.314437		$|
8905431	0	object/static/structure/general/cave_wall_damprock_style_01.iff	0	1092.19	383.723	390.54	0.910019	0.142194	0.0446839	0.386846		$|
8905434	0	object/static/structure/general/cave_wall_damprock_style_01.iff	0	1073.98	384.197	393.098	0.966197	0.019327	0.00514095	-0.257029		$|
8905439	0	object/static/structure/general/cave_wall_damprock_style_01.iff	0	1071.86	345.277	443.534	1	0	0	0		$|
8905442	0	object/static/structure/general/cave_wall_damprock_style_01.iff	0	1089.97	324.489	453.063	0.97423	0.212748	-0.0159861	-0.0732046		$|
8905443	0	object/static/structure/general/cave_wall_damprock_style_01.iff	0	1078.45	324.633	463.139	0.983647	0.019676	0.00358	-0.178994		$|
8905496	0	object/building/naboo/housing_naboo_style_3.iff	0	965.294	360	631.677	-0.536088	0	0.844162	0		$|
9795376	0	object/tangible/sign/all_sign_city_s03.iff	0	633.927	305.549	545.359	0.99995	0	-0.00999918	0		$|
9795377	0	object/tangible/sign/all_sign_city_s03.iff	0	477.137	323.162	748.456	0.893822	0	-0.448422	0		$|
9895358	0	object/static/naboo/waterfall_mist_small.iff	0	1087.6	327.334	452.123	1	0	0	0		$|
9895359	0	object/static/naboo/waterfall_mist_small.iff	0	1076.14	328.53	460.823	1	0	0	0		$|
9895360	0	object/static/naboo/waterfall_200m.iff	0	1075.9	354.092	448.572	0.942533	0	0.334114	0		$|
58025	0	object/building/naboo/filler_building_naboo_theed_style_2.iff	0	605.045	330.011	779.568	0.173323	0	0.984865	0		$|
141353	0	object/building/naboo/filler_building_naboo_theed_style_2.iff	0	946.59	360	646.745	0.0391935	0	0.999232	0		$|
141357	0	object/building/naboo/filler_building_naboo_theed_style_6.iff	0	761.437	360	625.781	0.711193	0	0.702997	0		$|
683316	0	object/building/naboo/filler_building_naboo_theed_style_4.iff	0	669.758	330	786.938	-0.059169	0	0.998248	0		$|
683317	0	object/building/naboo/filler_building_naboo_theed_style_4.iff	0	839.054	360	505.702	0.714144	0	0.699999	0		$|
1419128	0	object/building/naboo/thm_nboo_block_bldg_32x16_style_01.iff	0	964.326	350	537.41	0.247404	0	0.968912	0		$|
1422845	0	object/building/naboo/thm_nboo_block_bldg_64x32_style_01.iff	0	899.962	360	569.568	0.710348	0	-0.703851	0		$|
1422849	0	object/building/naboo/thm_nboo_block_bldg_32x16_style_01.iff	0	972.796	350	500.183	0.99995	0	0.00999973	0		$|
1426845	0	object/building/naboo/thm_nboo_block_bldg_32x16_style_02.iff	0	573.15	330	711.201	1	0	0	0		$|
1426851	0	object/building/naboo/thm_nboo_block_bldg_32x16_style_01.iff	0	595.549	330	741.701	0.707112	0	0.707102	0		$|
1426866	0	object/building/naboo/thm_nboo_block_bldg_32x16_style_02.iff	0	911.879	360	526.688	0.99995	0	0.00999976	0		$|
1426869	0	object/building/naboo/thm_nboo_block_bldg_64x32_s02.iff	0	880.918	360	481.047	5.14951E-08	0	1	0		$|
1685127	0	object/building/naboo/filler_building_naboo_theed_style_4.iff	0	1000.19	350	495.883	1	0	0	0		$|
1685170	0	object/building/naboo/filler_building_naboo_theed_style_6.iff	0	990.635	350	542.121	-0.014204	0	0.999899	0		$|
1685171	0	object/building/naboo/thm_nboo_block_bldg_32x16_style_02.iff	0	998.171	350	569.616	0.692824	0	0.721107	0		$|
1714691	0	object/building/naboo/thm_nboo_block_bldg_32x16_style_01.iff	0	626.48	330	616.141	-0.689207	0	0.724565	0		$|
1714727	0	object/building/naboo/thm_nboo_block_bldg_32x16_style_02.iff	0	892.696	360	617.202	0.71063	0	-0.703566	0		$|
1714857	0	object/building/naboo/filler_building_naboo_theed_style_6.iff	0	597.788	330	716.363	0.696992	0	0.717079	0		$|
1717279	0	object/building/naboo/thm_nboo_block_bldg_32x16_style_01.iff	0	1001.76	350	601.809	0.696134	0	0.717911	0		$|
4295407	0	object/tangible/poi/spawnegg/exterior_spawnegg.iff	0	1622.633789	289.9527283	507.690674	1	0	0	0		$|
-1	0	object/tangible/poi/tatooine/explore_naboo_deeja_falls.iff	0	1061	388	402	1	0	0	0		$|
6995491	0	object/tangible/ground_spawning/mob_spawner.iff	0	1212	326	463	1	0	0	0		$|
6995492	0	object/tangible/ground_spawning/mob_spawner.iff	0	1043	350	570	0	0	1	0		$|
